{
  "locales": [
    {
      "name": "Cubatão - SP",
      "id": 4047
    },
    {
      "name": "Praia Grande - SP",
      "id": 3589
    },
    {
      "name": "Embu-Guaçu - SP",
      "id": 4081
    },
    {
      "name": "Itu - SP",
      "id": 3845
    },
    {
      "name": "Campinas - SP",
      "id": 4456
    },
    {
      "name": "Rio Claro - SP",
      "id": 3623
    },
    {
      "name": "Matão - SP",
      "id": 3946
    },
    {
      "name": "São José do Rio Preto - SP",
      "id": 3693
    },
    {
      "name": "Fernandópolis - SP",
      "id": 4132
    },
    {
      "name": "Aparecida do Taboado - MS",
      "id": 3166
    },
    {
      "name": "Inocência - MS",
      "id": 4107
    },
    {
      "name": "Chapadão do Sul - MS",
      "id": 7673
    },
    {
      "name": "Alto Araguaia - MT",
      "id": 9111
    },
    {
      "name": "Itiquira - MT",
      "id": 7623
    },
    {
      "name": "Rondonópolis - MT",
      "id": 7664
    }
  ]  
  
}
